module talon

go 1.21

require (
	github.com/mitchellh/mapstructure v1.5.0
	github.com/stretchr/testify v1.8.4
	google.golang.org/protobuf v1.32.0
)

require (
	github.com/davecgh/go-spew v1.1.1 // indirect
	github.com/pmezard/go-difflib v1.0.0 // indirect
	gopkg.in/yaml.v3 v3.0.1 // indirect
)
